{
    "title": "Food",
    "category": "food",
    "lang": "en_US",
    "description": "",
    "words": [
        "appetizer",
        "apple pie",
        "apple",
        "artichoke",
        "avocado",
        "bagel",
        "baked beans",
        "baking soda",
        "balsamic vinegar",
        "banana bread",
        "banana split",
        "banana",
        "basil",
        "bavarian cream",
        "beef jerky",
        "beef",
        "biscuits \"n gravy",
        "black beans",
        "blackberry",
        "BLT",
        "bread bowl",
        "bread",
        "broth",
        "canadian bacon",
        "caviar",
        "cheese",
        "cheeseburger",
        "chicken pot pie",
        "chocolate cake",
        "cinnamon rolls",
        "clam chowder",
        "cobbler",
        "cookies",
        "corn",
        "cornbread",
        "crabcakes",
        "crepe",
        "cupcakes",
        "cutting board",
        "dairy",
        "deviled eggs",
        "doughnuts",
        "egg nog",
        "egg salad",
        "enchilada",
        "fajitas",
        "fettuccine alfredo",
        "flatbread",
        "fortune cookies",
        "fried chicken and waffles",
        "fruit salad",
        "fruit smoothie",
        "gits",
        "granola bar",
        "grape",
        "gravy",
        "guacamole",
        "hard-boiled egg",
        "hot dogs",
        "ice cream sundae",
        "jambalaya",
        "jellybeans",
        "jerky",
        "key lime pie",
        "kumquat",
        "lasagna",
        "lobster rolls",
        "mac and cheese",
        "mashed potatoes",
        "meatballs",
        "meatloaf",
        "milk",
        "mushroom",
        "nachos",
        "noodles",
        "pancakes",
        "peanut butter & jelly sandwich",
        "philly cheese steak",
        "pizza",
        "po\" boy",
        "popcorn",
        "pork",
        "pot roast",
        "potato chips",
        "poultry",
        "produce",
        "reuben sandwich",
        "ribs",
        "rolls",
        "s\"mores",
        "salmon",
        "sandwich",
        "sea salt",
        "shish kabob",
        "soft pretzel",
        "soup de jour",
        "sourdough bread",
        "spinach",
        "steak",
        "sun-dried tomatoes",
        "sushi",
        "sweet potatoes",
        "taco",
        "tater tots",
        "tempura",
        "turkey",
        "vanilla extract",
        "waffles",
        "wings",
        "sobrassada",
        "paella",
        "risotto",
        "escargots",
        "spaghetti carbonara",
        "gnocchi",
        "ham"
    ]
}
