{
    "title": "Animals",
    "category": "animals",
    "lang": "ca_ES",
    "description": "",
    "words": [
        "ós formiguer",
        "albatros",
        "cocodril",
        "antílop",
        "simi",
        "armadillo",
        "àguila calba",
        "ca d'atur",
        "rata-pinyada",
        "castor",
        "ocell",
        "ós negre",
        "balena blava",
        "búfal",
        "bulldog",
        "vedella",
        "camell",
        "oca canadenca",
        "moix",
        "eruga",
        "bagre",
        "cameleó",
        "gallina",
        "ximpazén",
        "xinxilla",
        "tamias",
        "peix pallasso",
        "puma",
        "vaca",
        "cranc",
        "grill",
        "cocodril",
        "corb",
        "llobató",
        "cérvol",
        "llebre",
        "ca",
        "dofí",
        "monea",
        "colom",
        "drac",
        "ànec",
        "ànnera",
        "elefant",
        "uatapí",
        "ovella",
        "guineu",
        "granot",
        "gasela",
        "monstre de Gila",
        "girafa",
        "gòfer",
        "marmota monax",
        "conill de rata",
        "hàmster",
        "porc espí",
        "hipopòtam",
        "cavall",
        "humà",
        "hiena",
        "grumer",
        "cangur",
        "moixet",
        "koala",
        "drac de comodo",
        "marieta",
        "llama",
        "xot",
        "leopard",
        "lleó",
        "llagosta",
        "ant",
        "arna",
        "ratolí",
        "llúdria",
        "mussol",
        "panda",
        "pantera",
        "periquito",
        "pelicà",
        "pingüí",
        "ornitorrinc",
        "ós polar",
        "poni",
        "eriçó",
        "cusset de la padereries",
        "quissó",
        "conill",
        "rata",
        "serp de cascabell",
        "ren",
        "rupit",
        "mola de peixos",
        "lleó marí",
        "gavina",
        "cavallet de mar",
        "tauró",
        "ca de bestià",
        "ovella",
        "gamba",
        "mofeta",
        "salamandra",
        "peresós",
        "aranya",
        "esquirol",
        "cavall semental",
        "peix espasa",
        "tigre",
        "calàpat",
        "tucà",
        "tonyina",
        "tortuga",
        "unicorn",
        "voltor",
        "morsa",
        "porc senglar",
        "bereiol",
        "búfal d'aigua",
        "foca",
        "nyu",
        "llop",
        "uombat",
        "cuc",
        "zebra"
    ]
}
