{
    "title": "Bebé",
    "category": "baby",
    "lang": "ca_ES",
    "description": "",
    "words": [
        "balbucejar",
        "potets",
        "barrera infantil",
        "oli de bebè",
        "talc de bebè",
        "festa prenatal",
        "babè",
        "bressol",
        "hora del bany",
        "juguetes pel bany",
        "bany",
        "pitet",
        "baverall",
        "xumet",
        "naixement",
        "malet",
        "suco",
        "peücs",
        "rentabiberons",
        "escalfador de biberons",
        "biberó",
        "balancí",
        "rotet",
        "cesària",
        "cadireta de cotxe",
        "canviar",
        "canviador",
        "bolquers de roba",
        "còlic",
        "crosta de llet",
        "gatejar",
        "bres",
        "plorar",
        "acaronar",
        "baba",
        "bossa per bolquers",
        "dermatitis per bolquer",
        "bolquer",
        "cotxet doble",
        "menjar",
        "banc d'activitats",
        "pet",
        "mamar",
        "fòrmula",
        "llepafils",
        "gaga",
        "creixement",
        "singlot",
        "trona",
        "infant",
        "caminador",
        "part",
        "mama",
        "llet",
        "guants",
        "mòbil",
        "monitor",
        "horeta",
        "neonat",
        "habitació del bebè",
        "escoleta",
        "bodi",
        "cobertes per endolls",
        "sonall",
        "pixo",
        "lleure",
        "pati",
        "caca",
        "embaràs",
        "farinetes",
        "mandra",
        "tassa d'entrenament",
        "seure's",
        "dormir",
        "adormit",
        "somriure",
        "sabó neutre",
        "calcetins",
        "speak",
        "gatrointeritis",
        "primeres passes",
        "carret",
        "animal de peluix",
        "fer pipa",
        "abrigallar",
        "gronzador",
        "ós de peluix",
        "dents de llet",
        "nadó",
        "jugueta",
        "trimestre",
        "caminar",
        "torcar"
    ]
}
