{
    "title": "Métiers",
    "category": "occupations",
    "lang": "fr_FR",
    "description": "",
    "words": [
        "comptable",
        "acteur",
        "assistant administratif",
        "ingénieur aéronautique",
        "contrôleur aérien",
        "anesthésiste",
        "architecte",
        "artiste",
        "boulanger",
        "guichetier de banque",
        "barman",
        "garçon de café",
        "conducteur de bus",
        "boucher",
        "charpentier",
        "capitaine",
        "caissier",
        "ingénieur chimiste",
        "chimiste",
        "chef",
        "chiropracteur",
        "ingénieur en génie civil",
        "greffier",
        "entraîneur",
        "technicien en informatique",
        "ouvrier du bâtiment",
        "cuistot",
        "agent pénitentiaire",
        "conseiller",
        "agent de sécurité",
        "service après-vente",
        "administrateur de bases de données",
        "hygiéniste dentaire",
        "dentiste",
        "concepteur",
        "détective",
        "directeur",
        "plongeur",
        "expéditeur",
        "docteur",
        "éditeur",
        "ingénieur électrique",
        "électricien",
        "ingénieur",
        "directeur",
        "fermier",
        "analyste financier",
        "pompier",
        "éboueur",
        "général",
        "jardinier",
        "coiffeur",
        "concierge",
        "hôte",
        "influenceur",
        "inspecteur",
        "architecte d'intérieur",
        "interne",
        "gardien",
        "juge",
        "paysagiste",
        "juriste",
        "legislateur",
        "libraire",
        "maître-nageur",
        "mécanicien",
        "femme de ménage",
        "postier",
        "trieur de courrier",
        "manager",
        "masseur thérapeute",
        "méchanicien",
        "ingénieur en mécanique",
        "messager",
        "musicien",
        "infirmier",
        "peintre",
        "assistant juridique",
        "pasteur",
        "pédiatre",
        "pharmacien",
        "technicien en pharmacie",
        "photographe",
        "kinésithérapeute",
        "pilote",
        "plombier",
        "policier",
        "politique",
        "président",
        "prêtre",
        "détective privé",
        "professeur",
        "agent immobilier",
        "réceptionniste",
        "couvreur",
        "marin",
        "commercial",
        "scientifique",
        "agent de sécurité",
        "sheriff",
        "chanteur",
        "travailleur social",
        "développeur de logiciels",
        "soldat",
        "superviseur",
        "chirurgien",
        "géomètre",
        "tailleur",
        "éducateur",
        "écrivain technique",
        "téléprospecteur",
        "testeur",
        "thérapiste",
        "formateur",
        "traducteur",
        "agent de voyage",
        "camionneur",
        "voiturier",
        "vétérinaire",
        "serveur",
        "soudeur",
        "gardien de zoo"
    ]
}
