{
    "title": "Sports",
    "category": "sports",
    "lang": "fr_FR",
    "description": "",
    "words": [
        "ace",
        "avantage",
        "all star",
        "tir à l'arc",
        "assistant",
        "athlète",
        "revers",
        "coup de pied",
        "tir",
        "balle",
        "gradin",
        "base",
        "baseball",
        "basket",
        "basketball",
        "raquette",
        "banc",
        "bloc",
        "bowling",
        "gants de boxe",
        "médaille de bronze",
        "mille",
        "papillon",
        "capitaine",
        "cartes",
        "catch",
        "champion",
        "championnat",
        "chronomètre",
        "entraîneur",
        "cricket",
        "curling",
        "cyclisme",
        "fléchette",
        "fléchettes",
        "défenseur",
        "défense",
        "diamant",
        "disc-golf",
        "disqualifié",
        "division",
        "double faute",
        "tirage",
        "dribble",
        "zone",
        "exercice",
        "mise en jeu",
        "fans",
        "escrime",
        "terrain de jeu",
        "terrain",
        "figure de skate",
        "marche",
        "football américain",
        "avant",
        "arrière",
        "forfait",
        "attaquant",
        "faute",
        "lancer franc",
        "freestyle",
        "balle de match",
        "gants",
        "but",
        "gardien",
        "gardien de but",
        "médaille d'or",
        "golf",
        "green",
        "gymnastique",
        "mi-temps",
        "handicap",
        "coup du chapeau",
        "coup",
        "hockey",
        "home run",
        "rassemblement",
        "hors-jeu",
        "manche",
        "manches",
        "intercéption",
        "coup de pied",
        "engagement",
        "knock out",
        "crosse",
        "ligne",
        "lay-up",
        "ligue",
        "arbitre de ligne",
        "abandon",
        "doubler",
        "meilleur joueur",
        "filet",
        "infraction",
        "dehors",
        "par",
        "passe",
        "surface de réparation",
        "carton",
        "penalty",
        "jeu parfait",
        "cours",
        "joueur",
        "éliminatoires",
        "point",
        "piscine",
        "entraînement",
        "professionel",
        "putter",
        "quart-temps",
        "quarterback",
        "course",
        "rebond",
        "record",
        "récréatif",
        "rediffusion",
        "aviron",
        "rugby",
        "règles",
        "courir",
        "ruée",
        "sûr",
        "sauvetage",
        "score",
        "mêlée",
        "saison",
        "set",
        "ligne de touche",
        "médaille d'argent",
        "ski",
        "slam dunk",
        "smash",
        "snowboard",
        "ballon de football",
        "football",
        "spectateurs",
        "spirale",
        "stade",
        "bâton",
        "attaquant",
        "sumo",
        "surfeur",
        "nageur",
        "tacle",
        "équipe",
        "tee",
        "tennis",
        "lancer",
        "tie break",
        "temps mort",
        "toss",
        "touchdown",
        "piste",
        "outsider",
        "universitaire",
        "victoire",
        "volley",
        "volleyball",
        "lutte",
        "yard"
    ]
}
