{
    "title": "Dieren",
    "category": "animals",
    "lang": "nl_NL",
    "description": "",
    "words": [
        "aap",
        "aardvarken",
        "aasgier",
        "albatros",
        "alligator",
        "amerikaanse zeearend",
        "antilope",
        "bassethond",
        "bever",
        "bizon",
        "blauwe vinvis",
        "bosmarmot",
        "bulldog",
        "canadese gans",
        "cavia",
        "chimpansee",
        "chinchilla",
        "clownvis",
        "dolfijn",
        "dond",
        "draak",
        "duif",
        "eekhoorn",
        "eend",
        "eendenkuiken",
        "eenhoorn",
        "eland",
        "ezel",
        "garnaal",
        "gazelle",
        "gilamonster",
        "giraffe",
        "gnoe",
        "gordeldier",
        "haai",
        "hamster",
        "hengst",
        "herdershond",
        "hert",
        "hinde",
        "hyena",
        "ijsbeer",
        "kalf",
        "kameel",
        "kameleon",
        "kangoeroe",
        "kat",
        "kikker",
        "kip",
        "koala",
        "koe",
        "komodovaraan",
        "konijn",
        "kraai",
        "krab",
        "kreeft",
        "krekel",
        "krokodil",
        "kwal",
        "lam",
        "lama",
        "leeuw",
        "lieveheersbeestje",
        "luiaard",
        "luipaard",
        "meerval",
        "meeuw",
        "mens",
        "mol",
        "mot",
        "muis",
        "nijlpaard",
        "olifant",
        "ooi",
        "otter",
        "paard",
        "panda",
        "panter",
        "parkiet",
        "pelikaan",
        "penguïn",
        "poema",
        "poesje",
        "pony",
        "prairiehond",
        "puppy",
        "rat",
        "ratelslang",
        "ree",
        "rendier",
        "roodborstje",
        "rups",
        "salamander",
        "schaap",
        "schildpad",
        "school vissen",
        "spin",
        "stekelvarken",
        "stinkdier",
        "tijger",
        "toekan",
        "tonijn",
        "uil",
        "vleermuis",
        "vogel",
        "vogelbekdier",
        "vos",
        "walrus",
        "waterbuffel",
        "welp",
        "wesp",
        "wezel",
        "wolf",
        "wombat",
        "worm",
        "wrattenzwijn",
        "zebra",
        "zeeleeuw",
        "zeepaardje",
        "zwaardvis",
        "zwarte beer"
    ]
}
