{
    "title": "Emoji's",
    "category": "emoji",
    "lang": "nl_NL",
    "description": "",
    "words": [
        "100",
        "aapje",
        "afvinken",
        "angst",
        "baan",
        "baby",
        "bal",
        "ballon",
        "benieuwd",
        "blad",
        "bloem",
        "blozen",
        "boks",
        "boom",
        "boos",
        "boosheid",
        "boot",
        "brandweerman",
        "bril",
        "brood",
        "buitenaards wezen",
        "cadeau",
        "camera",
        "computer",
        "confetti",
        "diamant",
        "dier",
        "donut",
        "draak",
        "duim omhoog",
        "duim omlaag",
        "duivel",
        "duizelig",
        "echtpaar",
        "eenhoorn",
        "emoji",
        "emotieloos",
        "eten",
        "explosie",
        "feestbeest",
        "fruit",
        "garnaal",
        "gebouwen",
        "gebroken hart",
        "gedachteballon",
        "geld",
        "geldtas",
        "gelukstranen",
        "genieten",
        "gereedschap",
        "gevouwen handen",
        "gieren van het lachen",
        "glimlach",
        "glitters",
        "globe",
        "grijns",
        "grimas",
        "groente",
        "halo",
        "hamburger",
        "hand",
        "hart",
        "hartjesogen",
        "high five",
        "hond",
        "horen en zwijgen",
        "huilen",
        "insect",
        "jurk",
        "kaas",
        "kat",
        "kerstman",
        "klappen",
        "klok",
        "knipoog",
        "koe",
        "koekje",
        "koffie",
        "koptelefoon",
        "koud zweet",
        "kroon",
        "kus",
        "lach",
        "leeuw",
        "maan",
        "masker",
        "microfoon",
        "muziek",
        "nadenken",
        "neutraal",
        "ogen",
        "oké",
        "onweer",
        "opgelucht",
        "overwinning",
        "paard",
        "penguïn",
        "pijlen",
        "pizza",
        "pleidooi",
        "poep",
        "politie",
        "post",
        "prijzen",
        "pruilen",
        "punt",
        "raket",
        "recyclen",
        "regen",
        "regenboog",
        "rijstbal",
        "robot",
        "schaap",
        "schedel",
        "schildpad",
        "schoen",
        "schouders ophalen",
        "schreeuw",
        "slapend",
        "smiley",
        "sneeuwman",
        "sneeuwvlok",
        "speels",
        "spieren",
        "spook",
        "ster",
        "strand",
        "strikje",
        "symbool",
        "taart",
        "taco",
        "tada",
        "telefoon",
        "teleurgesteld",
        "tijd",
        "tong",
        "trein",
        "triomf",
        "trofee",
        "uitgeput",
        "uitroepteken",
        "umbrella",
        "unamused",
        "vermoeid",
        "verven",
        "verward",
        "vis",
        "vlag",
        "vliegtuig",
        "voertuigen",
        "vork",
        "vorm",
        "vuist",
        "vuur",
        "walvis",
        "weer",
        "wolk",
        "zien en zwijgen",
        "zon",
        "zonnebril",
        "zwaaien",
        "zweten",
        "zwijgen",
        "zzz"
    ]
}