{
    "title": "Eten",
    "category": "food",
    "lang": "nl_NL",
    "description": "",
    "words": [
        "aardappelkroketjes",
        "aardappelpuree",
        "aperitief",
        "appel",
        "appeltaart",
        "artisjok",
        "avocado",
        "bagel",
        "bakpoeder",
        "balsamico-azijn",
        "banaan",
        "bananenbrood",
        "bananensplit",
        "basilicum",
        "bavariaanse room",
        "bitterkoekjes",
        "bouillon",
        "brood",
        "broodblik",
        "broodje gezond",
        "broodje pindakaas en jam",
        "cafe noir",
        "canadees spek",
        "champignon",
        "cheeseburger",
        "chips",
        "chocoladetaart",
        "creme doublies",
        "crêpe",
        "cupcakes",
        "deugnietjes",
        "donuts",
        "druif",
        "eienpunch",
        "eiersalade",
        "enchilada",
        "escargots",
        "fajita's",
        "fettuccine alfredo",
        "fruingarnering",
        "fruitsalade",
        "fruitsmoothie",
        "gebakken bonen",
        "gedroogd rundvlees",
        "gefrituurde kip en wafels",
        "gehaktballen",
        "gehaktbrood",
        "gelukskoekjes",
        "gevogelte",
        "gevulde eieren",
        "gnocchi",
        "granolareep",
        "groente en fruit",
        "guacamole",
        "ham",
        "hardgekookt ei",
        "hete bliksem",
        "hotdogs",
        "hutspot",
        "ijscoupe",
        "jambalaya",
        "Jan hagel",
        "jellybeans",
        "jodekoek",
        "jus",
        "kaas",
        "kaasplak",
        "kalkoen",
        "kaneelrollen",
        "kano's",
        "kaviaar",
        "kebab",
        "kippenpastei",
        "kippenvleugels",
        "koekjes",
        "koffieleutjes",
        "koffiewafels",
        "kokoskransen",
        "krabkoekjes",
        "kreeftrolletjes",
        "kumquat",
        "lange vingers",
        "lasagne",
        "limoen-roomtaart",
        "lunettaspritsen",
        "macaroni met kaas",
        "maïs",
        "maïsbrood",
        "melk",
        "melk",
        "mosselsoep",
        "nacho's",
        "noedels",
        "pannekoeken",
        "paëlla",
        "pepernoten",
        "pindakoeken",
        "pizza",
        "platbrood",
        "popcorn",
        "risotto",
        "rolletjes",
        "rookworst",
        "roze koeken",
        "rund",
        "rundvlees",
        "sandwich",
        "scholiertje",
        "scones en jus",
        "snijplank",
        "spaghetti carbonara",
        "spareribs",
        "speculaasbrokken",
        "spinazie",
        "spritsen",
        "stamppot",
        "steak",
        "stoofschotel",
        "sushi",
        "taco",
        "tempura",
        "theebiscuits",
        "tomatensoep",
        "vanille-extract",
        "varkensveels",
        "vla",
        "wafels",
        "zachte pretzel",
        "zalw",
        "zebraspritsen",
        "zeezout",
        "zoete aardappelen",
        "zongedroogde tomaten",
        "zuurdesembrood",
        "zwarte bes",
        "zwarte bonen"
    ]
}