{
    "title": "Beroepen",
    "category": "occupations",
    "lang": "nl_NL",
    "description": "",
    "words": [
        "accountant",
        "acteur",
        "administratief medewerker",
        "advocaat",
        "afwasser",
        "anesthesioloog",
        "apotheekmedewerker",
        "apotheker",
        "architect",
        "artiesten",
        "baas",
        "bakker",
        "bankmedewerker",
        "bartender",
        "bediende",
        "beveiliger",
        "bibliothecaris",
        "boer",
        "boodschapper",
        "bouwvakker",
        "brandweerman",
        "buschauffeur",
        "cassière",
        "chemicus",
        "chemisch ingenieur",
        "chiropractor",
        "chirurg",
        "civiel ingenieur",
        "coach",
        "computertechnicus",
        "conciërge",
        "dakdekker",
        "databankadministrator",
        "detective",
        "dienstmeisje",
        "dierenarts",
        "dierentuinverzorger",
        "doctor",
        "dokter",
        "dominee",
        "electrisch ingenieur",
        "elektriciën",
        "financieel analist",
        "fotograaf",
        "fysiotherapeut",
        "generaal",
        "host/hostess",
        "influencer",
        "ingenieur",
        "inspecteur",
        "interieurontwerper",
        "juridisch medewerker",
        "kapitein",
        "kapper",
        "kinderarts",
        "klaar-over",
        "klantenservicemedewerker",
        "kleermaker",
        "klusser",
        "kok",
        "landmeter",
        "landschapsarchitect",
        "lasser",
        "leidinggevende",
        "leraar",
        "loodgieter",
        "luchtverkeersleider",
        "machinist",
        "makelaar",
        "manager",
        "massagetherapeut",
        "matroos",
        "mechanisch ingenieur",
        "mondhygiënist",
        "monteur",
        "musicus",
        "ober",
        "ontwerper",
        "parkeerbediende",
        "penitentiair ambtenaar",
        "piloot",
        "politicus",
        "politie",
        "postbezorger",
        "postsorteerder",
        "president",
        "priester",
        "privédetective",
        "professor",
        "raadsman",
        "raadsvrouw",
        "receptionist",
        "rechter",
        "redacteur",
        "regisseur",
        "reisagent",
        "ruimtevaartingenieur",
        "schilder",
        "serveerster",
        "sheriff",
        "slager",
        "sociaal werker",
        "software-ontwikkelaar",
        "soldaat",
        "stagiair",
        "strandwacht",
        "supervisor",
        "tandarts",
        "technisch schrijver",
        "telemarketeer",
        "terreinbeheerder",
        "tester",
        "therapeut",
        "timmerman",
        "tolk",
        "trainer",
        "verkoper",
        "verpleegster",
        "verzender",
        "vrachtwagenchauffeur",
        "vuilnisman",
        "wetenschapper",
        "wetgever",
        "zanger"
    ]
}
